SPI.vcd
$date
	Sun Dec  6 01:48:57 2020
$end

$version
	Synopsys VCS version I-2014.03-2
$end

$timescale
	1ns
$end

$comment Csum: 1 742bb308617b93f7 $end


$scope module top $end

$scope module dut $end

$scope module spi_dut $end
$var wire 1 ! pclk $end
$var wire 1 " preset $end
$var wire 16 # SPCR [15:0] $end
$var wire 1 $ penable $end
$var wire 16 % pdata [15:0] $end
$var reg 1 & Sclk $end
$var reg 1 ' MOSI $end
$var reg 8 ( SPSR [7:0] $end
$var reg 1 ) s_TX_ready $end
$var reg 1 * O_Data_Ready $end
$var reg 8 + s_clk_cntr [7:0] $end
$var reg 6 , s_clk_data_edges [5:0] $end
$var reg 6 - Edges [5:0] $end
$var reg 1 . CPOL $end
$var reg 1 / CPHA $end
$var reg 1 0 Sclk_d $end
$var reg 1 1 Sclk_Leading_Edge $end
$var reg 1 2 Sclk_Trailing_Edge $end
$var reg 4 3 s_data_TX_cntr [3:0] $end
$var reg 4 4 s_TX_cntr [3:0] $end
$var reg 16 5 s_TX_data [15:0] $end
$var reg 16 6 s_TX_data_d [15:0] $end
$var reg 1 7 SPIF $end
$var reg 1 8 WCOL $end
$var reg 1 9 BitEnable $end
$var reg 1 : MSTR $end
$var reg 1 ; LSBF $end
$var reg 1 < SPIE $end
$var reg 4 = BITS [3:0] $end
$upscope $end

$upscope $end

$upscope $end

$enddefinitions $end

#0
$dumpvars
x9
x/
x.
x;
0'
x:
0*
x<
17
x&
01
02
x0
08
0)
bxxxx =
bxxxxxx -
b00000000 (
b0000 4
b0000000000000000 5
b0000000000000000 6
b00000000 +
b000000 ,
b0000 3
$end
#5
1!
x$
b0000101000110100 #
0/
1.
b0000111100111101 %
#10
1"
0!
b10000000 (
b001010 -
b1001 3
b1010 =
0<
0;
1:
19
#15
1$
1!
b010100 ,
b0000111100111101 6
1)
b0000111100111101 5
#20
0!
#25
0$
1!
b00000001 +
0)
b1111 4
1'
07
b00000000 (
#30
0!
#35
1!
b00000010 +
#40
0!
#45
1!
b00000011 +
#50
0!
#55
1!
b00000100 +
#60
0!
#65
1!
12
b00000000 +
b010011 ,
#70
0!
#75
1!
b00000001 +
02
#80
0!
#85
1!
b00000010 +
#90
0!
#95
1!
b00000011 +
#100
0!
#105
1!
b00000100 +
#110
0!
#115
1!
11
b00000000 +
b010010 ,
#120
0!
#125
1!
b00000001 +
01
#130
0!
#135
1!
b00000010 +
#140
0!
#145
1!
b00000011 +
#150
0!
#155
1!
b00000100 +
#160
0!
#165
1!
12
b00000000 +
b010001 ,
#170
0!
#175
1!
b00000001 +
02
#180
0!
#185
1!
b00000010 +
#190
0!
#195
1!
b00000011 +
#200
0!
#205
1!
b00000100 +
#210
0!
#215
1!
11
b00000000 +
b010000 ,
#220
0!
#225
1!
b00000001 +
01
#230
0!
#235
1!
b00000010 +
#240
0!
#245
1!
b00000011 +
#250
0!
#255
1!
b00000100 +
#260
0!
#265
1!
12
b00000000 +
b001111 ,
#270
0!
#275
1!
b00000001 +
02
#280
0!
#285
1!
b00000010 +
#290
0!
#295
1!
b00000011 +
#300
0!
#305
1!
b00000100 +
#310
0!
#315
1!
11
b00000000 +
b001110 ,
#320
0!
#325
1!
b00000001 +
01
#330
0!
#335
1!
b00000010 +
#340
0!
#345
1!
b00000011 +
#350
0!
#355
1!
b00000100 +
#360
0!
#365
1!
12
b00000000 +
b001101 ,
#370
0!
#375
1!
b00000001 +
02
#380
0!
#385
1!
b00000010 +
#390
0!
#395
1!
b00000011 +
#400
0!
#405
1!
b00000100 +
#410
0!
#415
1!
11
b00000000 +
b001100 ,
#420
0!
#425
1!
b00000001 +
01
#430
0!
#435
1!
b00000010 +
#440
0!
#445
1!
b00000011 +
#450
0!
#455
1!
b00000100 +
#460
0!
#465
1!
12
b00000000 +
b001011 ,
#470
0!
#475
1!
b00000001 +
02
#480
0!
#485
1!
b00000010 +
#490
0!
#495
1!
b00000011 +
#500
0!
#505
1!
b00000100 +
#510
0!
#515
1!
11
b00000000 +
b001010 ,
#520
0!
#525
1!
b00000001 +
01
#530
0!
#535
1!
b00000010 +
#540
0!
#545
1!
b00000011 +
#550
0!
#555
1!
b00000100 +
#560
0!
#565
1!
12
b00000000 +
b001001 ,
#570
0!
#575
1!
b00000001 +
02
#580
0!
#585
1!
b00000010 +
#590
0!
#595
1!
b00000011 +
#600
0!
#605
1!
b00000100 +
#610
0!
#615
1!
11
b00000000 +
b001000 ,
#620
0!
#625
1!
b00000001 +
01
#630
0!
#635
1!
b00000010 +
#640
0!
#645
1!
b00000011 +
#650
0!
#655
1!
b00000100 +
#660
0!
#665
1!
12
b00000000 +
b000111 ,
#670
0!
#675
1!
b00000001 +
02
#680
0!
#685
1!
b00000010 +
#690
0!
#695
1!
b00000011 +
#700
0!
#705
1!
b00000100 +
#710
0!
#715
1!
11
b00000000 +
b000110 ,
#720
0!
#725
1!
b00000001 +
01
#730
0!
#735
1!
b00000010 +
#740
0!
#745
1!
b00000011 +
#750
0!
#755
1!
b00000100 +
#760
0!
#765
1!
12
b00000000 +
b000101 ,
#770
0!
#775
1!
b00000001 +
02
#780
0!
#785
1!
b00000010 +
#790
0!
#795
1!
b00000011 +
#800
0!
#805
1!
b00000100 +
#810
0!
#815
1!
11
b00000000 +
b000100 ,
#820
0!
#825
1!
b00000001 +
01
#830
0!
#835
1!
b00000010 +
#840
0!
#845
1!
b00000011 +
#850
0!
#855
1!
b00000100 +
#860
0!
#865
1!
12
b00000000 +
b000011 ,
#870
0!
#875
1!
b00000001 +
02
#880
0!
#885
1!
b00000010 +
#890
0!
#895
1!
b00000011 +
#900
0!
#905
1!
b00000100 +
#910
0!
#915
1!
11
b00000000 +
b000010 ,
#920
0!
#925
1!
b00000001 +
01
#930
0!
#935
1!
b00000010 +
#940
0!
#945
1!
b00000011 +
#950
0!
#955
1!
b00000100 +
#960
0!
#965
1!
12
b00000000 +
b000001 ,
#970
0!
#975
1!
b00000001 +
02
#980
0!
#985
1!
b00000010 +
#990
0!
#995
1!
b00000011 +
#1000
0!
#1005
1!
b00000100 +
#1010
0!
#1015
1!
11
b00000000 +
b000000 ,
#1020
0!
#1025
1!
01
1*
#1030
0!
#1035
1!
b1001 4
